Lesson 9 - Graphics II
…
AMZN2020 <- AMZN %>% slice(222:251) %>% 
  select(Date, Open, High, Low, Close) %>%
  pivot_longer(-Date, names_to = "status", values_to = "price")
AMZN2020

## # A tibble: 120 x 3
##    Date       status price
##    <date>     <chr>  <dbl>
##  1 2020-06-05 Open   2445.
##  2 2020-06-05 High   2489.
##  3 2020-06-05 Low    2437.
##  4 2020-06-05 Close  2483 
##  5 2020-06-08 Open   2500.
##  6 2020-06-08 High   2530 
##  7 2020-06-08 Low    2487.
##  8 2020-06-08 Close  2524.
##  9 2020-06-09 Open   2529.
## 10 2020-06-09 High   2626.
## #  with 110 more rows
…
